<svg xmlns="http://www.w3.org/2000/svg" width="109" height="17" viewBox="0 0 109 17">
    <g>
        <g>
            <g>
                <text dominant-baseline="text-before-edge" style="text-transform:uppercase;font-kerning:normal"
                      fill="#fff" font-family="'Gotham Pro','GothamPro-BlackItalic'" font-size="22" font-style="italic"
                      transform="translate(0 -1)">
                    <tspan style="text-transform:uppercase;font-kerning:normal">Lerchek</tspan>
                </text>
            </g>
        </g>
    </g>
</svg>