<svg width="110" height="110" viewBox="0 0 110 110" fill="none" xmlns="http://www.w3.org/2000/svg">
    <circle cx="54.6875" cy="54.6875" r="54.1875" stroke="#1EB8D2"/>
    <path d="M69.8462 38.6154H63.2842C62.8494 37.6929 61.9168 37.0769 60.8506 37.0769H59.7855L60.1964 35.4337C60.2825 35.0891 60.2051 34.7238 59.9865 34.4438C59.7677 34.1637 59.4322 34 59.0769 34H52.9231C52.5678 34 52.2323 34.1637 52.0136 34.4438C51.795 34.7238 51.7175 35.0891 51.8037 35.4337L52.2145 37.0769H51.1495C50.0833 37.0769 49.1507 37.6929 48.7158 38.6154H42.1538C41.5166 38.6154 41 39.132 41 39.7692V72.2308C41 72.868 41.5166 73.3846 42.1538 73.3846H69.8462C70.4834 73.3846 71 72.868 71 72.2308V39.7692C71 39.132 70.4834 38.6154 69.8462 38.6154ZM51.1494 39.3846H53.6923C54.0476 39.3846 54.3831 39.2209 54.6018 38.9408C54.8204 38.6608 54.8978 38.2955 54.8117 37.9509L54.4008 36.3077H57.5991L57.1882 37.9509C57.1021 38.2955 57.1795 38.6608 57.3982 38.9408C57.6169 39.2209 57.9524 39.3846 58.3077 39.3846H60.8506C61.0394 39.3846 61.1989 39.5198 61.23 39.706L61.561 41.6923H50.439L50.7701 39.706C50.8011 39.5198 50.9606 39.3846 51.1494 39.3846ZM68.6923 71.0769H43.3077V40.9231H48.2277L47.9388 42.6565C47.883 42.991 47.9772 43.3332 48.1965 43.5919C48.4158 43.8507 48.7378 44 49.0769 44H62.9231C63.2622 44 63.5842 43.8508 63.8035 43.5919C64.0227 43.3331 64.117 42.9909 64.0612 42.6565L63.7723 40.9231H68.6923V71.0769Z"
          fill="#1EB8D2"/>
    <path d="M56.0003 48C50.2743 48 45.6157 52.6585 45.6157 58.3846C45.6157 64.1107 50.2743 68.7692 56.0003 68.7692C61.7264 68.7692 66.385 64.1107 66.385 58.3846C66.385 52.6585 61.7264 48 56.0003 48ZM51.8215 65.2942C52.0939 63.7735 53.4255 62.6154 55.0234 62.6154H56.9773C58.5746 62.6154 59.9058 63.7727 60.1789 65.2944C58.959 66.0348 57.5286 66.4615 56.0003 66.4615C54.472 66.4615 53.0414 66.0348 51.8215 65.2942ZM57.9234 58.3846C57.9234 59.445 57.0607 60.3077 56.0003 60.3077C54.94 60.3077 54.0773 59.445 54.0773 58.3846V56.8462C54.0773 55.7858 54.94 54.9231 56.0003 54.9231C57.0607 54.9231 57.9234 55.7858 57.9234 56.8462V58.3846ZM62.0908 63.6838C61.565 62.4583 60.6113 61.4587 59.4186 60.8735C59.9289 60.1745 60.2311 59.3144 60.2311 58.3846V56.8462C60.2311 54.5133 58.3332 52.6154 56.0003 52.6154C53.6675 52.6154 51.7696 54.5133 51.7696 56.8462V58.3846C51.7696 59.3144 52.0718 60.1745 52.5821 60.8735C51.3894 61.4588 50.4356 62.4583 49.9099 63.6838C48.6733 62.2645 47.9234 60.4105 47.9234 58.3846C47.9234 53.931 51.5467 50.3077 56.0003 50.3077C60.454 50.3077 64.0773 53.931 64.0773 58.3846C64.0773 60.4105 63.3273 62.2645 62.0908 63.6838Z"
          fill="#1EB8D2"/>
</svg>
